digraph {
bgcolor="#1a1a1a"
edge [fontcolor="black", color="#28B463"]
node [style=filled, fillcolor="#313638", fontcolor="white" , color=transparent]label="AST (Abstract Syntax Tree)" fontsize=35 fontcolor=white;
    labelloc="t"n0[label="RAIZ"];
n1[label="PROGRAM"];
n0->n1;
n2[label="LISTA DECLARACION"];
n1->n2;
n3[label="DECLARACION"];
n2->n3;
n4[label="ID"];
n3->n4;
n5[label="INTEGER"];
n4->n5;
n6[label="x"];
n4->n6;
n7[label="0"];
n3->n7;
n8[label="DECLARACION"];
n2->n8;
n9[label="ID"];
n8->n9;
n10[label="INTEGER"];
n9->n10;
n11[label="y"];
n9->n11;
n12[label="0"];
n8->n12;
n13[label="DECLARACION"];
n2->n13;
n14[label="ID"];
n13->n14;
n15[label="INTEGER"];
n14->n15;
n16[label="z"];
n14->n16;
n17[label="0"];
n13->n17;
n18[label="ASIGNAR"];
n1->n18;
n19[label="x"];
n18->n19;
n20[label="9"];
n18->n20;
n21[label="ASIGNAR"];
n1->n21;
n22[label="y"];
n21->n22;
n23[label="12"];
n21->n23;
n24[label="ASIGNAR"];
n1->n24;
n25[label="z"];
n24->n25;
n26[label="3"];
n24->n26;
n27[label="LISTA DECLARACION"];
n1->n27;
n28[label="DECLARACION"];
n27->n28;
n29[label="ID"];
n28->n29;
n30[label="INTEGER"];
n29->n30;
n31[label="exp1"];
n29->n31;
n32[label="+"];
n28->n32;
n33[label="-"];
n32->n33;
n34[label="ID"];
n33->n34;
n35[label="x"];
n34->n35;
n36[label="9"];
n34->n36;
n37[label="/"];
n33->n37;
n38[label="ID"];
n37->n38;
n39[label="y"];
n38->n39;
n40[label="12"];
n38->n40;
n41[label="3"];
n37->n41;
n42[label="-"];
n32->n42;
n43[label="*"];
n42->n43;
n44[label="ID"];
n43->n44;
n45[label="z"];
n44->n45;
n46[label="3"];
n44->n46;
n47[label="2"];
n43->n47;
n48[label="1"];
n42->n48;
n49[label="PRINT"];
n1->n49;
n50[label="Evaluacion 1 = "];
n49->n50;
n51[label="ID"];
n49->n51;
n52[label="exp1"];
n51->n52;
n53[label="10"];
n51->n53;
n54[label="LISTA DECLARACION"];
n1->n54;
n55[label="DECLARACION"];
n54->n55;
n56[label="ID"];
n55->n56;
n57[label="INTEGER"];
n56->n57;
n58[label="exp2"];
n56->n58;
n59[label="+"];
n55->n59;
n60[label="/"];
n59->n60;
n61[label="-"];
n60->n61;
n62[label="ID"];
n61->n62;
n63[label="x"];
n62->n63;
n64[label="9"];
n62->n64;
n65[label="ID"];
n61->n65;
n66[label="y"];
n65->n66;
n67[label="12"];
n65->n67;
n68[label="3"];
n60->n68;
n69[label="-"];
n59->n69;
n70[label="*"];
n69->n70;
n71[label="ID"];
n70->n71;
n72[label="z"];
n71->n72;
n73[label="3"];
n71->n73;
n74[label="2"];
n70->n74;
n75[label="1"];
n69->n75;
n76[label="PRINT"];
n1->n76;
n77[label="Evaluacion 2 = "];
n76->n77;
n78[label="ID"];
n76->n78;
n79[label="exp2"];
n78->n79;
n80[label="4"];
n78->n80;
n81[label="ASIGNAR"];
n1->n81;
n82[label="x"];
n81->n82;
n83[label="30"];
n81->n83;
n84[label="ASIGNAR"];
n1->n84;
n85[label="y"];
n84->n85;
n86[label="50"];
n84->n86;
n87[label="ASIGNAR"];
n1->n87;
n88[label="z"];
n87->n88;
n89[label="60"];
n87->n89;
n90[label="IF"];
n1->n90;
n91[label="CONDICION"];
n90->n91;
n92[label=">"];
n91->n92;
n93[label="ID"];
n92->n93;
n94[label="y"];
n93->n94;
n95[label="50"];
n93->n95;
n96[label="ID"];
n92->n96;
n97[label="x"];
n96->n97;
n98[label="30"];
n96->n98;
n99[label="INSTRUCCIONES IF"];
n90->n99;
n100[label="PRINT"];
n99->n100;
n101[label="y es mayor que x"];
n100->n101;
n102[label="IF"];
n1->n102;
n103[label="CONDICION"];
n102->n103;
n104[label="<"];
n103->n104;
n105[label="ID"];
n104->n105;
n106[label="y"];
n105->n106;
n107[label="50"];
n105->n107;
n108[label="ID"];
n104->n108;
n109[label="z"];
n108->n109;
n110[label="60"];
n108->n110;
n111[label="INSTRUCCIONES IF"];
n102->n111;
n112[label="PRINT"];
n111->n112;
n113[label="y is menor que z"];
n112->n113;
n114[label="LISTA DECLARACION"];
n1->n114;
n115[label="DECLARACION"];
n114->n115;
n116[label="ID"];
n115->n116;
n117[label="INTEGER"];
n116->n117;
n118[label="a"];
n116->n118;
n119[label="12"];
n115->n119;
n120[label="LISTA DECLARACION"];
n1->n120;
n121[label="DECLARACION"];
n120->n121;
n122[label="ID"];
n121->n122;
n123[label="INTEGER"];
n122->n123;
n124[label="b"];
n122->n124;
n125[label="10"];
n121->n125;
n126[label="PRINT"];
n1->n126;
n127[label="a == b  : "];
n126->n127;
n128[label="ID"];
n126->n128;
n129[label="a"];
n128->n129;
n130[label="12"];
n128->n130;
n131[label="=="];
n126->n131;
n132[label="ID"];
n126->n132;
n133[label="b"];
n132->n133;
n134[label="10"];
n132->n134;
n135[label=" : "];
n126->n135;
n136[label="=="];
n126->n136;
n137[label="ID"];
n136->n137;
n138[label="a"];
n137->n138;
n139[label="12"];
n137->n139;
n140[label="ID"];
n136->n140;
n141[label="b"];
n140->n141;
n142[label="10"];
n140->n142;
n143[label="PRINT"];
n1->n143;
n144[label="a != b  : "];
n143->n144;
n145[label="ID"];
n143->n145;
n146[label="a"];
n145->n146;
n147[label="12"];
n145->n147;
n148[label="!="];
n143->n148;
n149[label="ID"];
n143->n149;
n150[label="b"];
n149->n150;
n151[label="10"];
n149->n151;
n152[label=" : "];
n143->n152;
n153[label="!="];
n143->n153;
n154[label="ID"];
n153->n154;
n155[label="a"];
n154->n155;
n156[label="12"];
n154->n156;
n157[label="ID"];
n153->n157;
n158[label="b"];
n157->n158;
n159[label="10"];
n157->n159;
n160[label="PRINT"];
n1->n160;
n161[label="a > b   :  "];
n160->n161;
n162[label="ID"];
n160->n162;
n163[label="a"];
n162->n163;
n164[label="12"];
n162->n164;
n165[label="">""];
n160->n165;
n166[label="ID"];
n160->n166;
n167[label="b"];
n166->n167;
n168[label="10"];
n166->n168;
n169[label=" : "];
n160->n169;
n170[label=">"];
n160->n170;
n171[label="ID"];
n170->n171;
n172[label="a"];
n171->n172;
n173[label="12"];
n171->n173;
n174[label="ID"];
n170->n174;
n175[label="b"];
n174->n175;
n176[label="10"];
n174->n176;
n177[label="PRINT"];
n1->n177;
n178[label="a < b   :  "];
n177->n178;
n179[label="ID"];
n177->n179;
n180[label="a"];
n179->n180;
n181[label="12"];
n179->n181;
n182[label=""<""];
n177->n182;
n183[label="ID"];
n177->n183;
n184[label="b"];
n183->n184;
n185[label="10"];
n183->n185;
n186[label=" : "];
n177->n186;
n187[label="<"];
n177->n187;
n188[label="ID"];
n187->n188;
n189[label="a"];
n188->n189;
n190[label="12"];
n188->n190;
n191[label="ID"];
n187->n191;
n192[label="b"];
n191->n192;
n193[label="10"];
n191->n193;
n194[label="PRINT"];
n1->n194;
n195[label="a >=b   : "];
n194->n195;
n196[label="ID"];
n194->n196;
n197[label="a"];
n196->n197;
n198[label="12"];
n196->n198;
n199[label=">="];
n194->n199;
n200[label="ID"];
n194->n200;
n201[label="b"];
n200->n201;
n202[label="10"];
n200->n202;
n203[label=" : "];
n194->n203;
n204[label=">="];
n194->n204;
n205[label="ID"];
n204->n205;
n206[label="a"];
n205->n206;
n207[label="12"];
n205->n207;
n208[label="ID"];
n204->n208;
n209[label="b"];
n208->n209;
n210[label="10"];
n208->n210;
n211[label="PRINT"];
n1->n211;
n212[label="a <= b  : "];
n211->n212;
n213[label="ID"];
n211->n213;
n214[label="a"];
n213->n214;
n215[label="12"];
n213->n215;
n216[label="<="];
n211->n216;
n217[label="ID"];
n211->n217;
n218[label="b"];
n217->n218;
n219[label="10"];
n217->n219;
n220[label=" : "];
n211->n220;
n221[label="<="];
n211->n221;
n222[label="ID"];
n221->n222;
n223[label="a"];
n222->n223;
n224[label="12"];
n222->n224;
n225[label="ID"];
n221->n225;
n226[label="b"];
n225->n226;
n227[label="10"];
n225->n227;
n228[label="PRINT"];
n1->n228;
n229[label="'CON ETIQUETAS'"];
n228->n229;
n230[label="PRINT"];
n1->n230;
n231[label="a == b  : "];
n230->n231;
n232[label="ID"];
n230->n232;
n233[label="a"];
n232->n233;
n234[label="12"];
n232->n234;
n235[label="=="];
n230->n235;
n236[label="ID"];
n230->n236;
n237[label="b"];
n236->n237;
n238[label="10"];
n236->n238;
n239[label=" : "];
n230->n239;
n240[label="=="];
n230->n240;
n241[label="ID"];
n240->n241;
n242[label="a"];
n241->n242;
n243[label="12"];
n241->n243;
n244[label="ID"];
n240->n244;
n245[label="b"];
n244->n245;
n246[label="10"];
n244->n246;
n247[label="PRINT"];
n1->n247;
n248[label="a != b  : "];
n247->n248;
n249[label="ID"];
n247->n249;
n250[label="a"];
n249->n250;
n251[label="12"];
n249->n251;
n252[label="!="];
n247->n252;
n253[label="ID"];
n247->n253;
n254[label="b"];
n253->n254;
n255[label="10"];
n253->n255;
n256[label=" : "];
n247->n256;
n257[label="!="];
n247->n257;
n258[label="ID"];
n257->n258;
n259[label="a"];
n258->n259;
n260[label="12"];
n258->n260;
n261[label="ID"];
n257->n261;
n262[label="b"];
n261->n262;
n263[label="10"];
n261->n263;
n264[label="PRINT"];
n1->n264;
n265[label="a > b   :  "];
n264->n265;
n266[label="ID"];
n264->n266;
n267[label="a"];
n266->n267;
n268[label="12"];
n266->n268;
n269[label="">""];
n264->n269;
n270[label="ID"];
n264->n270;
n271[label="b"];
n270->n271;
n272[label="10"];
n270->n272;
n273[label=" : "];
n264->n273;
n274[label=">"];
n264->n274;
n275[label="ID"];
n274->n275;
n276[label="a"];
n275->n276;
n277[label="12"];
n275->n277;
n278[label="ID"];
n274->n278;
n279[label="b"];
n278->n279;
n280[label="10"];
n278->n280;
n281[label="PRINT"];
n1->n281;
n282[label="a < b   :  "];
n281->n282;
n283[label="ID"];
n281->n283;
n284[label="a"];
n283->n284;
n285[label="12"];
n283->n285;
n286[label=""<""];
n281->n286;
n287[label="ID"];
n281->n287;
n288[label="b"];
n287->n288;
n289[label="10"];
n287->n289;
n290[label=" : "];
n281->n290;
n291[label="<"];
n281->n291;
n292[label="ID"];
n291->n292;
n293[label="a"];
n292->n293;
n294[label="12"];
n292->n294;
n295[label="ID"];
n291->n295;
n296[label="b"];
n295->n296;
n297[label="10"];
n295->n297;
n298[label="PRINT"];
n1->n298;
n299[label="a >=b   : "];
n298->n299;
n300[label="ID"];
n298->n300;
n301[label="a"];
n300->n301;
n302[label="12"];
n300->n302;
n303[label=">="];
n298->n303;
n304[label="ID"];
n298->n304;
n305[label="b"];
n304->n305;
n306[label="10"];
n304->n306;
n307[label=" : "];
n298->n307;
n308[label=">="];
n298->n308;
n309[label="ID"];
n308->n309;
n310[label="a"];
n309->n310;
n311[label="12"];
n309->n311;
n312[label="ID"];
n308->n312;
n313[label="b"];
n312->n313;
n314[label="10"];
n312->n314;
n315[label="PRINT"];
n1->n315;
n316[label="a <= b  : "];
n315->n316;
n317[label="ID"];
n315->n317;
n318[label="a"];
n317->n318;
n319[label="12"];
n317->n319;
n320[label="<="];
n315->n320;
n321[label="ID"];
n315->n321;
n322[label="b"];
n321->n322;
n323[label="10"];
n321->n323;
n324[label=" : "];
n315->n324;
n325[label="<="];
n315->n325;
n326[label="ID"];
n325->n326;
n327[label="a"];
n326->n327;
n328[label="12"];
n326->n328;
n329[label="ID"];
n325->n329;
n330[label="b"];
n329->n330;
n331[label="10"];
n329->n331;
n332[label="ASIGNAR"];
n1->n332;
n333[label="x"];
n332->n333;
n334[label="10"];
n332->n334;
n335[label="ASIGNAR"];
n1->n335;
n336[label="y"];
n335->n336;
n337[label="5"];
n335->n337;
n338[label="LISTA DECLARACION"];
n1->n338;
n339[label="DECLARACION"];
n338->n339;
n340[label="ID"];
n339->n340;
n341[label="LOGICAL"];
n340->n341;
n342[label="result1"];
n340->n342;
n343[label=".and."];
n339->n343;
n344[label="=="];
n343->n344;
n345[label="ID"];
n344->n345;
n346[label="x"];
n345->n346;
n347[label="10"];
n345->n347;
n348[label="10"];
n344->n348;
n349[label="=="];
n343->n349;
n350[label="ID"];
n349->n350;
n351[label="y"];
n350->n351;
n352[label="5"];
n350->n352;
n353[label="5"];
n349->n353;
n354[label="PRINT"];
n1->n354;
n355[label="Resultado 1: "];
n354->n355;
n356[label="ID"];
n354->n356;
n357[label="result1"];
n356->n357;
n358[label="true"];
n356->n358;
n359[label="LISTA DECLARACION"];
n1->n359;
n360[label="DECLARACION"];
n359->n360;
n361[label="ID"];
n360->n361;
n362[label="LOGICAL"];
n361->n362;
n363[label="result2"];
n361->n363;
n364[label=".and."];
n360->n364;
n365[label="=="];
n364->n365;
n366[label="ID"];
n365->n366;
n367[label="x"];
n366->n367;
n368[label="10"];
n366->n368;
n369[label="10"];
n365->n369;
n370[label=">"];
n364->n370;
n371[label="ID"];
n370->n371;
n372[label="y"];
n371->n372;
n373[label="5"];
n371->n373;
n374[label="ID"];
n370->n374;
n375[label="x"];
n374->n375;
n376[label="10"];
n374->n376;
n377[label="PRINT"];
n1->n377;
n378[label="Resultado 2: "];
n377->n378;
n379[label="ID"];
n377->n379;
n380[label="result2"];
n379->n380;
n381[label="false"];
n379->n381;
n382[label="LISTA DECLARACION"];
n1->n382;
n383[label="DECLARACION"];
n382->n383;
n384[label="ID"];
n383->n384;
n385[label="LOGICAL"];
n384->n385;
n386[label="result3"];
n384->n386;
n387[label=".and."];
n383->n387;
n388[label="<"];
n387->n388;
n389[label="ID"];
n388->n389;
n390[label="x"];
n389->n390;
n391[label="10"];
n389->n391;
n392[label="ID"];
n388->n392;
n393[label="y"];
n392->n393;
n394[label="5"];
n392->n394;
n395[label=">"];
n387->n395;
n396[label="ID"];
n395->n396;
n397[label="y"];
n396->n397;
n398[label="5"];
n396->n398;
n399[label="ID"];
n395->n399;
n400[label="x"];
n399->n400;
n401[label="10"];
n399->n401;
n402[label="PRINT"];
n1->n402;
n403[label="Resultado 3: "];
n402->n403;
n404[label="ID"];
n402->n404;
n405[label="result3"];
n404->n405;
n406[label="false"];
n404->n406;
n407[label="PRINT"];
n1->n407;
n408[label=".or."];
n407->n408;
n409[label="=="];
n408->n409;
n410[label="2"];
n409->n410;
n411[label="2"];
n409->n411;
n412[label=">"];
n408->n412;
n413[label="3"];
n412->n413;
n414[label="5"];
n412->n414;
n415[label="PRINT"];
n1->n415;
n416[label=".or."];
n415->n416;
n417[label=">"];
n416->n417;
n418[label="5"];
n417->n418;
n419[label="18"];
n417->n419;
n420[label="!="];
n416->n420;
n421[label="3"];
n420->n421;
n422[label="9"];
n420->n422;
n423[label="PRINT"];
n1->n423;
n424[label=".or."];
n423->n424;
n425[label="=="];
n424->n425;
n426[label="4"];
n425->n426;
n427[label="4"];
n425->n427;
n428[label="<"];
n424->n428;
n429[label="5"];
n428->n429;
n430[label="9"];
n428->n430;
n431[label="PRINT"];
n1->n431;
n432[label=".or."];
n431->n432;
n433[label="<"];
n432->n433;
n434[label="4"];
n433->n434;
n435[label="2"];
n433->n435;
n436[label="=="];
n432->n436;
n437[label="2"];
n436->n437;
n438[label="1"];
n436->n438;
n439[label="PRINT"];
n1->n439;
n440[label=".or."];
n439->n440;
n441[label="!="];
n440->n441;
n442[label="3"];
n441->n442;
n443[label="3"];
n441->n443;
n444[label=">="];
n440->n444;
n445[label="3"];
n444->n445;
n446[label="9"];
n444->n446;
n447[label="ASIGNAR"];
n1->n447;
n448[label="x"];
n447->n448;
n449[label="1"];
n447->n449;
n450[label="ASIGNAR"];
n1->n450;
n451[label="y"];
n450->n451;
n452[label="2"];
n450->n452;
n453[label="ASIGNAR"];
n1->n453;
n454[label="z"];
n453->n454;
n455[label="5"];
n453->n455;
n456[label="PRINT"];
n1->n456;
n457[label="x: "];
n456->n457;
n458[label=".not."];
n456->n458;
n459[label="=="];
n458->n459;
n460[label="+"];
n459->n460;
n461[label="ID"];
n460->n461;
n462[label="x"];
n461->n462;
n463[label="1"];
n461->n463;
n464[label="2"];
n460->n464;
n465[label="+"];
n459->n465;
n466[label="1"];
n465->n466;
n467[label="2"];
n465->n467;
n468[label="PRINT"];
n1->n468;
n469[label="y: "];
n468->n469;
n470[label=".not."];
n468->n470;
n471[label="=="];
n470->n471;
n472[label="ID"];
n471->n472;
n473[label="y"];
n472->n473;
n474[label="2"];
n472->n474;
n475[label="ID"];
n471->n475;
n476[label="z"];
n475->n476;
n477[label="5"];
n475->n477;
n478[label="PRINT"];
n1->n478;
n479[label="z>x: "];
n478->n479;
n480[label=".not."];
n478->n480;
n481[label=">"];
n480->n481;
n482[label="ID"];
n481->n482;
n483[label="z"];
n482->n483;
n484[label="5"];
n482->n484;
n485[label="ID"];
n481->n485;
n486[label="x"];
n485->n486;
n487[label="1"];
n485->n487;
}